[
  {
    "url": "dwl-designs",
    "img": "hero.jpg",
    "thumbnail": "hero.jpg",
    "title": "DWL designs",
    "subTitle": "Portfolio design en code voor DWL designs",
    "body": "<p>Portfolio website voor DWL designs gemaakt, geschreven in html, mustache en scss.</p>",
    "stats": {
      "client": "Persoonlijk",
      "tools": ["HTML", "CSS", "JS", "Mustache", "Figma"],
      "date": "Juni 2021"
    },
    "buttons": {
      "icon": {
        "icon": "gitlab",
        "link": "https://gitlab.com/robbsnor/dev-portfolio"
      },
      "text": "Bekijk project",
      "link": "https://www.dwl-designs.com/"
    }
  },
  {
    "url": "natuurhuisje-lochem",
    "img": "hero.jpg",
    "thumbnail": "hero.jpg",
    "title": "Natuurhuisje Lochem",
    "subTitle": "Een custom design en Wordpress thema",
    "body": "<p>Bij dit project ben ik ingehuurd als derde waarbij de opdracht was om een website te maken in wordpress. Ik heb besloten om een eigen thema te ontwerpen omdat dat sneller en mooier is dan een bestaand thema.</p><p> Vervolgens heb ik het ontwerp gemaakt in figma, en omgezet naar wordpress met als basis underscores.</p>",
    "stats": {
      "client": "Persoonlijk",
      "tools": [
        "HTML",
        "SCSS",
        "JS",
        "Figma",
        "PHP",
        "Wordpress",
        "underscores",
        "gulp"
      ],
      "date": "Juni 2020"
    },
    "buttons": {
      "icon": {
        "icon": "gitlab",
        "link": "https://gitlab.com/robbsnor/natuurhuisje"
      },
      "text": "Bekijk project",
      "link": "https://natuurhuisje-lochem.nl/"
    }
  },
  {
    "url": "front-end-debug",
    "img": "hero.jpg",
    "thumbnail": "thumbnail.jpg",
    "title": "front end debugger (npm)",
    "subTitle": "Front end debug paneel in Javascript",
    "body": "<p>Een klein debug paneeltje dat de bootstrap breakpoints aangeeft, de breedte en hoogte van de browser, en een grid overlay om te kijken of je content goed uitgelijnd is.</p>",
    "stats": {
      "client": "Persoonlijk",
      "tools": ["NPM", "HTML", "js", "scss"],
      "date": "April 2020"
    },
    "buttons": {
      "icon": {
        "icon": "gitlab",
        "link": "https://gitlab.com/robbsnor/front-end-debug"
      },
      "text": "Bekijk op NPM",
      "link": "https://www.npmjs.com/package/front-end-debug"
    }
  },
  {
    "url": "dean-one",
    "img": "hero.jpg",
    "thumbnail": "thumbnail.jpg",
    "title": "Dean One",
    "subTitle": "Onepager met Javascript url param fetching",
    "body": "<p>Een one-pager voor de nieuwsbrief van dean one, zij wilde graag een formulier die vooraf al ingefuld was met de gegevens van de klant.</p><p> Dit word gedaan door de url parameters op te vangen met Javascript, en daarmee het formulier in te vullen.</p>",
    "stats": {
      "client": "Dean One",
      "tools": ["HTML", "SCSS", "JS", "GULP"],
      "date": "November 2019"
    },
    "buttons": {
      "icon": {
        "icon": "gitlab",
        "link": "https://gitlab.com/robbsnor/dean-one-mailing"
      },
      "text": "Bekijk demo",
      "link": "https://dean-one-mailing.vercel.app/?voornaam=John&achternaam=Doe&bedrijf=Jouw%20bedrijf&adres=Jouw%20adres&postcode=Jouw%20postcode&plaats=Jouw%20plaats"
    }
  },
  {
    "url": "check-je-ogen",
    "img": "hero.jpg",
    "thumbnail": "thumbnail.jpg",
    "title": "Check je ogen",
    "subTitle": "Kleine website, van design naar code",
    "body": "<p> 2 Bijna indentieke paginas met informatie over de gezondheid van je ogen.<br> ik heb het design omgezet naar code en geschreven in gulp en mustache.</p>",
    "stats": {
      "client": "Procornea",
      "tools": ["HTML", "SCSS", "JS", "gulp"],
      "date": "December 2019"
    },
    "buttons": {
      "icon": {
        "icon": "gitlab",
        "link": "https://gitlab.com/robbsnor/ikkijkverder"
      },
      "text": "Bekijk demo",
      "link": "https://ikkijkverder.vercel.app/"
    }
  },
  {
    "url": "hopp",
    "img": "hopp.gif",
    "thumbnail": "hopp.gif",
    "title": "Hopp",
    "subTitle": "Mijn nickname in 3D",
    "body": "<p>Mijn nickname gemaakt in Cinema 4d, geloopt, en gerenderd.</p><p>Het deisgn is gebaseerd op het album van Logistics: <a href='https://youtu.be/4zEmbwH8SQE' target='_blank'>Hologram</a>.</p>",
    "stats": {
      "client": "Persoonlijk",
      "tools": ["c4d", "Photoshop"],
      "date": "April 2020"
    },
    "buttons": {
      "icon": {
        "icon": "gitlab",
        "link": "/portfolio/hopp/hopp.gif"
      },
      "text": "Bekijk video",
      "link": "/portfolio/hopp/hopp.gif"
    }
  }
]
