<?xml version="1.0" encoding="utf-8"?>
<!-- Generator: Adobe Illustrator 23.0.1, SVG Export Plug-In . SVG Version: 6.00 Build 0)  -->
<svg version="1.1" id="Laag_1" xmlns="http://www.w3.org/2000/svg" xmlns:xlink="http://www.w3.org/1999/xlink" x="0px" y="0px"
	 viewBox="0 0 2500 2500" style="enable-background:new 0 0 2500 2500;" xml:space="preserve">
<style type="text/css">
	.st0{fill:#676767;}
</style>
<path class="st0" d="M688.6,1400.7c-1.7,2.5-4.7,10.4-9.2,23.8s-9.9,30-16.2,50.1c-6.4,20.1-13.3,42.6-20.6,67.4
	c-7.4,24.8-15.1,50.2-22.8,76c-7.9,25.9-15.4,51.2-22.6,76.1c-7.2,24.8-13.7,47.3-19.4,67.4s-10.4,36.9-14.3,50.5
	c-3.8,13.6-6.1,21.6-7,24.1c-2.1,8-5.5,17-10.2,26.8s-10.2,19.1-16.5,27.8c-6.4,8.8-13.4,16.1-21,21.8c-7.7,5.7-15.5,8.7-23.5,8.7
	c-13.6,0-23.4-4.6-29.6-13.6c-6.1-9-9.2-25.6-9.2-49.7v-10.5c0-3.5,0.2-7.3,0.7-11.3c0.4-8,3.6-23.1,9.5-45.2s13.1-47,21.3-75
	c8.2-27.9,17.1-56.7,26.7-86.6c9.5-29.9,18.1-56.6,25.8-80.2c-22.5,25.1-46.8,50.1-73.1,75c-26.2,24.9-53.2,47.2-80.7,67
	c-27.5,19.8-55.3,36.1-83.3,48.6s-54.9,18.8-80.7,18.8c-29.6,0-55.2-6.6-76.6-19.5c-21.4-13.1-39.1-30.2-53.1-51.2
	c-14-21.1-24.4-44.9-31.2-71.6c-6.8-26.6-10.2-53.3-10.2-79.8v-9.8c0-3,0.2-6,0.7-9c2.5-48.2,9.4-97.7,20.6-148.4
	c11.3-50.7,26-101.2,44.2-151.4c18.2-50.2,39.3-99.2,63.3-147.2c24-48,50-93.3,78.2-135.9s58-82,89.8-117.9s64.4-66.8,97.9-92.6
	s67.3-46,101.4-60.6s68-21.8,101.4-21.8c38.6,0,75.9,10.5,111.9,31.6s69.7,55.3,101.1,102.5c7.2,10.5,11.7,21.2,13.7,32
	c1.9,10.8,2.9,21,2.9,30.5c0,22.6-5.4,40.4-16.2,53.5s-23.7,19.5-38.5,19.5c-13.6,0-26.2-7.1-37.8-21.5
	c-11.7-14.3-24.7-34.8-39.1-61.4c-13.6-24.1-28.5-41.6-44.8-52.4S658.2,760,639.2,760c-29.6,0-61.4,12.4-95.1,36.9
	c-33.8,24.5-67.2,57.1-100.2,97.5s-64.8,86.5-95.1,138.6c-30.3,51.9-57.1,105.2-80.4,159.6c-23.3,54.4-41.9,108.2-55.6,161.2
	c-13.7,53-20.6,100.5-20.6,142.8c0,14.1,1,28.5,2.9,43.3c2,14.8,5.5,28.3,10.8,40.3c5.3,12.1,12.5,22,21.6,29.7
	c9.1,7.8,20.6,11.7,34.6,11.7c15.7,0,33.5-5.3,53.4-15.8s40.6-24.3,62-41.4s42.9-36.4,64.6-58c21.6-21.6,41.8-43.4,60.4-65.5
	c18.6-22.1,35.2-43.3,49.6-63.6c14.4-20.4,25.2-38,32.4-53.1l59.2-176.9c7.2-19.1,16.7-32.6,28.3-40.7c11.7-8,23.7-12.1,35.9-12.1
	c5.9,0,11.8,1,17.8,3c5.9,2,11.3,5.1,15.9,9.4c4.7,4.3,8.4,9.8,11.1,16.6c2.7,6.8,4.1,14.7,4.1,23.8c0,24.1-2.1,46.7-6.4,67.8
	c-4.3,21.2-9.7,41.7-16.2,61.7c-6.6,20-13.8,40.3-21.9,60.6C704,1357.3,696.2,1378.5,688.6,1400.7L688.6,1400.7z M1490.3,1548.2
	c-18.7,25.1-40.4,49.6-65.1,73.4c-24.8,23.9-50.3,45.1-76.6,63.6c-26.2,18.5-52.2,33.5-77.5,44.8c-25.5,11.3-48.3,17-68.7,17
	c-20.4,0-36.9-6.8-49.6-20.4s-19.1-36.6-19.1-69.3c0-23.1,3.4-50,10.2-80.6c-11,19.6-24.8,39.5-41.3,59.5
	c-16.5,20.1-35.4,38.4-56.6,55s-44.9,30-71.2,40.2c-26.2,10.3-54.9,15.4-85.8,15.4c-14,0-27.5-1.7-40.4-5.3
	c-12.9-3.5-24.2-9.5-34-18.1s-17.6-19.9-23.5-34.2c-5.9-14.3-8.9-32.2-8.9-53.8c0-0.5,0.9-8.1,2.5-22.9c1.7-14.8,7.1-38.2,16.2-70
	c9.1-31.9,23.2-73.1,42.3-123.9c19.1-50.7,46-112.2,80.7-184.5c8.9-19.1,19.2-32.8,30.8-41c11.7-8.3,24.2-12.4,37.8-12.4
	c5.9,0,12.1,0.9,18.5,2.6c6.4,1.8,12.3,4.6,17.8,8.3c5.5,3.7,10,8.5,13.4,14.3c3.4,5.7,5.1,12.4,5.1,20c0,5-0.7,9.8-2,14.3
	c-2.1,8.6-6.7,19.7-13.7,33.5s-15.1,29.6-24.5,47.5c-9.3,17.8-19.2,37-29.6,57.6c-10.4,20.5-20.1,41.9-28.9,64
	c-8.9,22.1-16.5,44.6-22.8,67.4c-6.4,22.8-10,45.1-10.8,66.7c0,9,2.1,17.3,6.4,24.9c4.3,7.5,11.3,11.3,21,11.3
	c27.5,0,53.8-9,78.8-27.1c25.1-18.1,48.1-40.5,69.3-67.4c21.2-26.8,40.4-55.7,57.6-86.6c17.1-30.9,31.5-59.1,42.9-84.7
	c8.1-17.1,15.1-35.4,21.3-55c6.1-19.5,12.8-37.6,20.1-54.3c7.2-16.6,15.4-30.4,24.8-41.4c9.3-11,21-16.6,35-16.6
	c15.2,0,27.3,5.7,36.2,17.3s13.4,25.4,13.4,41.4c0,9-2.8,21.5-8.6,37.3c-5.7,15.8-12.9,33.9-21.6,54.3s-18.1,42.1-28.3,65.1
	c-10.2,23.1-19.6,46.6-28.3,70.4c-8.7,23.9-15.9,47.2-21.6,70s-8.6,44.1-8.6,63.6c0,18.1,9.3,27.1,28,27.1c13.1,0,29.4-4.6,49-13.6
	c19.5-9,39.9-21.7,61.4-38c21.4-16.3,42.8-35.5,64.2-57.6c21.4-22.1,40.4-45.9,56.9-71.6L1490.3,1548.2L1490.3,1548.2z"/>
<path class="st0" d="M1510.1,1510.6c-4.7,11.5-9.2,25-13.7,40.3s-6.7,29-6.7,41c0,7.5,1.3,13.6,3.8,18.1s7.4,6.8,14.7,6.8
	c8.9,0,20-3.1,33.4-9.4s27.8-14.6,43.2-24.9c15.5-10.2,31.6-22.1,48.3-35.4c16.7-13.3,33.4-27.1,49.9-41.4
	c16.5-14.4,32.3-28.6,47.4-42.9c15.1-14.4,28.5-27.5,40.4-39.5c3.4-3.5,7.4-6.1,12.1-7.5c4.6-1.5,8.7-2.3,12.1-2.3
	c8.4,0,15.5,3.5,21,10.5s8.2,16.3,8.2,27.8c0,10.5-3,22.4-8.9,35.4c-5.9,13.1-16.3,25.9-31.2,38.4c-27.1,29.6-54.5,57.7-82,84.3
	c-27.5,26.6-55,50.1-82.3,70.4c-27.3,20.4-54.5,36.5-81.4,48.6s-53.1,18.1-78.6,18.1c-17.4,0-31.9-2.7-43.6-8.3
	c-11.7-5.6-21-13.1-28-22.6s-12-20.8-14.9-33.9s-4.5-26.8-4.5-41.4c0-24.6,3.1-49.9,9.2-75.7c6.1-25.8,13.4-49.6,21.9-71.1
	c14.8-39.2,29.9-78.1,45.2-116.7c15.2-38.7,29.2-74.1,42-106.2l192.6-485.8c7.7-19.5,17.9-33.4,30.9-41.4c12.9-8,26-12.1,39.1-12.1
	s25.1,4.3,35.9,12.8s16.2,22.4,16.2,41.4c0,9-1.8,18.6-5.4,28.6s-8.1,20.8-13.7,32.4c-10.6,23.6-23.2,52.4-37.8,86.5
	c-14.7,34.1-30.3,71.3-47,111.5c-16.7,40.2-33.9,82-51.5,125.4s-34.8,85.7-51.5,126.9s-32.4,80.2-47,117.1
	C1533.2,1451.4,1520.6,1483.5,1510.1,1510.6L1510.1,1510.6z"/>
<path class="st0" d="M2411,1374.3c5.9-4,11.4-7.3,16.5-9.8c5-2.5,10-3.7,14.7-3.7c9.3,0,16.3,4.2,21,12.4c4.7,8.3,7,18.5,7,30.5
	c0,13.1-2.8,26.3-8.6,39.9c-5.7,13.6-14.3,24.8-25.8,33.9c-45.4,40.2-85.8,76.8-121.4,109.9c-35.6,33.1-69.2,61.6-100.8,85.5
	s-62.4,42.3-92.5,55.3c-30.1,13.1-62.3,19.5-96.7,19.5c-32.2,0-57.1-7.1-74.7-21.1c-17.6-14.1-26.4-33.4-26.4-58v-5.6
	c0-1.7,0.2-3.9,0.7-6.4c1.7-15.1,8.3-32.4,19.7-51.9c11.4-19.5,25.2-39.9,41.3-61c16.1-21.1,33.2-42.4,51.5-64
	c18.2-21.6,35.1-42.1,50.6-61.4c15.4-19.4,28.3-37,38.5-53.1s15.3-29.1,15.3-39.2c0-6.1-2.2-10.8-6.4-14.3c-4.3-3.5-11.3-5.3-21-5.3
	c-17,0-34.4,4.4-52.4,13.2c-18.1,8.8-35.9,20.5-53.4,35.3c-17.6,14.8-34.8,31.8-51.5,50.9s-32.4,38.9-47,59.5
	c-14.7,20.6-28,41.2-40,62.1c-12.1,20.8-22.4,40-30.8,57.6c-2.5,5.6-6.1,13.4-10.8,23.4c-4.7,10-9.7,21.4-15.2,33.9
	c-5.6,12.5-11.3,25.5-17.5,38.7c-6.1,13.4-11.7,25.9-16.8,37.6c-5.1,11.8-9.7,22.3-13.7,31.7c-4,9.3-6.9,15.7-8.6,19.2
	c-2.2,4.6-5.6,13.1-10.5,25.6s-10.4,27.2-16.9,44.1c-6.4,16.8-13.1,34.5-20,53.1c-7,18.6-13.6,36.2-19.7,52.7
	c-6.1,16.6-11.5,31.1-16.2,43.6s-7.7,21.1-9,25.6c-4.3,13.1-9.2,25.3-14.9,36.9c-5.7,11.5-12.3,21.7-19.7,30.5
	c-7.4,8.8-15.9,15.8-25.5,21.1c-9.5,5.3-20.3,7.9-32.1,7.9c-15.3,0-27.8-3.7-37.9-10.9c-10-7.3-14.9-21.2-14.9-41.8
	c0-10,1.3-20.4,3.8-30.9s5.7-21,9.5-31.2c3.8-10.3,7.7-20.4,11.7-30.1c4-9.8,7.7-19.2,11.1-28.3c22.8-50.2,46.2-100.5,70-151
	s46.5-100.4,68.3-149.9c21.8-49.4,42.1-98,60.7-145.7s34.1-93.4,46.4-137.1c3.4-9,8.1-21.8,14-38.5c5.9-16.6,12.7-32.9,20.4-49
	c7.7-16.1,16.2-30,25.8-41.8c9.5-11.8,19.8-17.7,30.8-17.7c17,0,29.2,3.9,36.9,11.7c7.7,7.8,11.4,19.2,11.4,34.2
	c0,3-0.4,7.8-1.3,14.3s-2,13.4-3.2,20.7c-1.3,7.3-2.7,14.2-4.1,20.7c-1.5,6.5-2.9,11.3-4.1,14.3c15.7-17.1,32.6-34,50.9-50.9
	c18.2-16.8,37.1-32,56.6-45.6s39.4-24.6,59.7-33.2c20.4-8.5,40.7-12.8,61-12.8c14,0,27.8,2,41.6,6.1c13.8,4,26.1,9.9,36.9,17.7
	c10.8,7.8,19.6,17.6,26.4,29.4c6.8,11.8,10.2,25.5,10.2,41c0,20.6-5.2,42.6-15.6,66c-10.4,23.4-23.4,46.8-39.1,70.4
	c-15.7,23.6-32.7,46.6-50.9,68.9c-18.2,22.4-35.3,42.7-51.2,61s-29.2,33.9-40,46.7c-10.8,12.8-16.4,21.5-16.9,26
	c0,6.1,2,10.9,5.7,14.7c3.7,3.8,10.2,5.6,19.1,5.6c7.2,0,17.8-4,31.8-12.1c14-8,33.6-21.9,58.8-41.8c25.2-19.8,57.2-46.5,96-79.8
	C2306.4,1467.1,2354.2,1425,2411,1374.3L2411,1374.3z"/>
</svg>
